divider.vcd
$date
  Fri Feb 20 17:50:18 2015
$end
$version
  GHDL v0
$end
$timescale
  1 fs
$end
$var reg 1 ! clk $end
$var integer 32 " i $end
$var reg 1 # inputs_ready $end
$var reg 1 $ divider_ready $end
$var reg 1 % output_ready $end
$var reg 1 & output_accept $end
$var reg 1 ' reset $end
$var reg 17 ( dividend[16:0] $end
$var reg 17 ) divisor[16:0] $end
$var reg 17 * quotient[16:0] $end
$var reg 17 + remainder[16:0] $end
$scope module dut $end
$var reg 1 , clk $end
$var reg 1 - reset $end
$var reg 17 . dividend[16:0] $end
$var reg 17 / divisor[16:0] $end
$var reg 1 0 inputs_ready $end
$var reg 1 1 divider_ready $end
$var reg 17 2 quotient[16:0] $end
$var reg 17 3 remainder[16:0] $end
$var reg 1 4 output_ready $end
$var reg 1 5 output_accept $end
$var reg 1 6 out_ready $end
$var reg 1 7 data_path $end
$upscope $end
$enddefinitions $end
#0
0!
b0 "
0#
1$
0%
0&
0'
b00000000000000000 (
b00000000000000000 )
b00000000000000000 *
b00000000000000000 +
0,
0-
b00000000000000000 .
b00000000000000000 /
00
11
b00000000000000000 2
b00000000000000000 3
04
05
06
07
#5000000
1!
1#
b00000001111001010 (
b00000000001000000 )
1,
b00000001111001010 .
b00000000001000000 /
10
#10000000
0!
0,
#15000000
1!
0$
1,
01
17
#20000000
0!
0,
#25000000
1!
0#
1,
00
#30000000
0!
0,
#35000000
1!
1,
#40000000
0!
0,
#45000000
1!
1,
#50000000
0!
0,
#55000000
1!
1,
#60000000
0!
0,
#65000000
1!
1,
#70000000
0!
0,
#75000000
1!
1,
#80000000
0!
0,
#85000000
1!
1,
#90000000
0!
0,
#95000000
1!
1,
#100000000
0!
0,
#105000000
1!
1,
#110000000
0!
0,
#115000000
1!
1,
#120000000
0!
0,
#125000000
1!
1,
#130000000
0!
0,
#135000000
1!
1,
#140000000
0!
0,
#145000000
1!
1,
#150000000
0!
0,
#155000000
1!
1,
#160000000
0!
0,
#165000000
1!
1,
#170000000
0!
0,
#175000000
1!
b00000000000001111 *
b00000000000001010 +
1,
b00000000000001111 2
b00000000000001010 3
16
#180000000
0!
1%
0,
14
06
07
#185000000
1!
b1 "
1&
1,
15
#190000000
0!
0%
0,
04
#195000000
1!
1$
0&
1,
11
05
#200000000
0!
0,
#205000000
1!
1#
b00000010000011100 (
b00000000011000110 )
1,
b00000010000011100 .
b00000000011000110 /
10
#210000000
0!
0,
#215000000
1!
0$
1,
01
17
#220000000
0!
0,
#225000000
1!
0#
1,
00
