run.vcd
$date
  Tue Jan 20 08:13:21 2015
$end
$version
  GHDL v0
$end
$timescale
  1 fs
$end
$comment var=variable 8 bit ! represents x, whenever we see scope module we are going one level below and upscope defines moving one level up. whenever # is in the beginning it indicates time stamp
$var reg 8 ! x[7:0] $end
$var reg 1 " n $end
$var reg 1 # clk $end
$var reg 3 $ s[2:0] $end
$scope module dut $end
$var reg 8 % x[7:0] $end
$var reg 3 & s[2:0] $end
$var reg 1 ' n $end
$upscope $end
$enddefinitions $end
#0
b00000001 !
0"
1#
b000 $
b00000001 %
b000 &
0'
#5000000
0#
#10000000
b00000010 !
0"
1#
b001 $
b00000010 %
b001 &
0'
#15000000
0#
#20000000
b00000011 !
1#
b000 $
b00000011 %
b000 &
#25000000
0#
#30000000
b00000100 !
0"
1#
b010 $
b00000100 %
b010 &
0'
#35000000
0#
#40000000
b00000101 !
1#
b000 $
b00000101 %
b000 &
#45000000
0#
#50000000
b00000110 !
1#
b001 $
b00000110 %
b001 &
#55000000
0#
#60000000
b00000111 !
1#
b000 $
b00000111 %
b000 &
#65000000
0#
#70000000
b00001000 !
0"
1#
b011 $
b00001000 %
b011 &
0'
#75000000
0#
#80000000
b00001001 !
1#
b000 $
b00001001 %
b000 &
#85000000
0#
#90000000
b00001010 !
1#
b001 $
b00001010 %
b001 &
#95000000
0#
#100000000
b00001011 !
1#
b000 $
b00001011 %
b000 &
#105000000
0#
#110000000
b00001100 !
1#
b010 $
b00001100 %
b010 &
#115000000
0#
#120000000
b00001101 !
1#
b000 $
b00001101 %
b000 &
#125000000
0#
#130000000
b00001110 !
1#
b001 $
b00001110 %
b001 &
#135000000
0#
#140000000
b00001111 !
1#
b000 $
b00001111 %
b000 &
#145000000
0#
#150000000
b00010000 !
0"
1#
b100 $
b00010000 %
b100 &
0'
#155000000
0#
#160000000
b00010001 !
1#
b000 $
b00010001 %
b000 &
#165000000
0#
#170000000
b00010010 !
1#
b001 $
b00010010 %
b001 &
#175000000
0#
#180000000
b00010011 !
1#
b000 $
b00010011 %
b000 &
#185000000
0#
#190000000
b00010100 !
1#
b010 $
b00010100 %
b010 &
#195000000
0#
#200000000
b00010101 !
1#
b000 $
b00010101 %
b000 &
#205000000
0#
#210000000
b00010110 !
1#
b001 $
b00010110 %
b001 &
#215000000
0#
#220000000
b00010111 !
1#
b000 $
b00010111 %
b000 &
#225000000
0#
#230000000
b00011000 !
1#
b011 $
b00011000 %
b011 &
#235000000
0#
#240000000
b00011001 !
1#
b000 $
b00011001 %
b000 &
#245000000
0#
#250000000
b00011010 !
1#
b001 $
b00011010 %
b001 &
#255000000
0#
#260000000
b00011011 !
1#
b000 $
b00011011 %
b000 &
#265000000
0#
#270000000
b00011100 !
1#
b010 $
b00011100 %
b010 &
#275000000
0#
#280000000
b00011101 !
1#
b000 $
b00011101 %
b000 &
#285000000
0#
#290000000
b00011110 !
1#
b001 $
b00011110 %
b001 &
#295000000
0#
#300000000
b00011111 !
1#
b000 $
b00011111 %
b000 &
#305000000
0#
#310000000
b00100000 !
0"
1#
b101 $
b00100000 %
b101 &
0'
#315000000
0#
#320000000
b00100001 !
1#
b000 $
b00100001 %
b000 &
#325000000
0#
#330000000
b00100010 !
1#
b001 $
b00100010 %
b001 &
#335000000
0#
#340000000
b00100011 !
1#
b000 $
b00100011 %
b000 &
#345000000
0#
#350000000
b00100100 !
1#
b010 $
b00100100 %
b010 &
#355000000
0#
#360000000
b00100101 !
1#
b000 $
b00100101 %
b000 &
#365000000
0#
#370000000
b00100110 !
1#
b001 $
b00100110 %
b001 &
#375000000
0#
#380000000
b00100111 !
1#
b000 $
b00100111 %
b000 &
#385000000
0#
#390000000
b00101000 !
1#
b011 $
b00101000 %
b011 &
#395000000
0#
#400000000
b00101001 !
1#
b000 $
b00101001 %
b000 &
#405000000
0#
#410000000
b00101010 !
1#
b001 $
b00101010 %
b001 &
#415000000
0#
#420000000
b00101011 !
1#
b000 $
b00101011 %
b000 &
#425000000
0#
#430000000
b00101100 !
1#
b010 $
b00101100 %
b010 &
#435000000
0#
#440000000
b00101101 !
1#
b000 $
b00101101 %
b000 &
#445000000
0#
#450000000
b00101110 !
1#
b001 $
b00101110 %
b001 &
#455000000
0#
#460000000
b00101111 !
1#
b000 $
b00101111 %
b000 &
#465000000
0#
#470000000
b00110000 !
1#
b100 $
b00110000 %
b100 &
#475000000
0#
#480000000
b00110001 !
1#
b000 $
b00110001 %
b000 &
#485000000
0#
#490000000
b00110010 !
1#
b001 $
b00110010 %
b001 &
#495000000
0#
#500000000
b00110011 !
1#
b000 $
b00110011 %
b000 &
#505000000
0#
#510000000
b00110100 !
1#
b010 $
b00110100 %
b010 &
#515000000
0#
#520000000
b00110101 !
1#
b000 $
b00110101 %
b000 &
#525000000
0#
#530000000
b00110110 !
1#
b001 $
b00110110 %
b001 &
#535000000
0#
#540000000
b00110111 !
1#
b000 $
b00110111 %
b000 &
#545000000
0#
#550000000
b00111000 !
1#
b011 $
b00111000 %
b011 &
#555000000
0#
#560000000
b00111001 !
1#
b000 $
b00111001 %
b000 &
#565000000
0#
#570000000
b00111010 !
1#
b001 $
b00111010 %
b001 &
#575000000
0#
#580000000
b00111011 !
1#
b000 $
b00111011 %
b000 &
#585000000
0#
#590000000
b00111100 !
1#
b010 $
b00111100 %
b010 &
#595000000
0#
#600000000
b00111101 !
1#
b000 $
b00111101 %
b000 &
#605000000
0#
#610000000
b00111110 !
1#
b001 $
b00111110 %
b001 &
#615000000
0#
#620000000
b00111111 !
1#
b000 $
b00111111 %
b000 &
#625000000
0#
#630000000
b01000000 !
0"
1#
b110 $
b01000000 %
b110 &
0'
#635000000
0#
#640000000
b01000001 !
1#
b000 $
b01000001 %
b000 &
#645000000
0#
#650000000
b01000010 !
1#
b001 $
b01000010 %
b001 &
#655000000
0#
#660000000
b01000011 !
1#
b000 $
b01000011 %
b000 &
#665000000
0#
#670000000
b01000100 !
1#
b010 $
b01000100 %
b010 &
#675000000
0#
#680000000
b01000101 !
1#
b000 $
b01000101 %
b000 &
#685000000
0#
#690000000
b01000110 !
1#
b001 $
b01000110 %
b001 &
#695000000
0#
#700000000
b01000111 !
1#
b000 $
b01000111 %
b000 &
#705000000
0#
#710000000
b01001000 !
1#
b011 $
b01001000 %
b011 &
#715000000
0#
#720000000
b01001001 !
1#
b000 $
b01001001 %
b000 &
#725000000
0#
#730000000
b01001010 !
1#
b001 $
b01001010 %
b001 &
#735000000
0#
#740000000
b01001011 !
1#
b000 $
b01001011 %
b000 &
#745000000
0#
#750000000
b01001100 !
1#
b010 $
b01001100 %
b010 &
#755000000
0#
#760000000
b01001101 !
1#
b000 $
b01001101 %
b000 &
#765000000
0#
#770000000
b01001110 !
1#
b001 $
b01001110 %
b001 &
#775000000
0#
#780000000
b01001111 !
1#
b000 $
b01001111 %
b000 &
#785000000
0#
#790000000
b01010000 !
1#
b100 $
b01010000 %
b100 &
#795000000
0#
#800000000
b01010001 !
1#
b000 $
b01010001 %
b000 &
#805000000
0#
#810000000
b01010010 !
1#
b001 $
b01010010 %
b001 &
#815000000
0#
#820000000
b01010011 !
1#
b000 $
b01010011 %
b000 &
#825000000
0#
#830000000
b01010100 !
1#
b010 $
b01010100 %
b010 &
#835000000
0#
#840000000
b01010101 !
1#
b000 $
b01010101 %
b000 &
#845000000
0#
#850000000
b01010110 !
1#
b001 $
b01010110 %
b001 &
#855000000
0#
#860000000
b01010111 !
1#
b000 $
b01010111 %
b000 &
#865000000
0#
#870000000
b01011000 !
1#
b011 $
b01011000 %
b011 &
#875000000
0#
#880000000
b01011001 !
1#
b000 $
b01011001 %
b000 &
#885000000
0#
#890000000
b01011010 !
1#
b001 $
b01011010 %
b001 &
#895000000
0#
#900000000
b01011011 !
1#
b000 $
b01011011 %
b000 &
#905000000
0#
#910000000
b01011100 !
1#
b010 $
b01011100 %
b010 &
#915000000
0#
#920000000
b01011101 !
1#
b000 $
b01011101 %
b000 &
#925000000
0#
#930000000
b01011110 !
1#
b001 $
b01011110 %
b001 &
#935000000
0#
#940000000
b01011111 !
1#
b000 $
b01011111 %
b000 &
#945000000
0#
#950000000
b01100000 !
1#
b101 $
b01100000 %
b101 &
#955000000
0#
#960000000
b01100001 !
1#
b000 $
b01100001 %
b000 &
#965000000
0#
#970000000
b01100010 !
1#
b001 $
b01100010 %
b001 &
#975000000
0#
#980000000
b01100011 !
1#
b000 $
b01100011 %
b000 &
#985000000
0#
#990000000
b01100100 !
1#
b010 $
b01100100 %
b010 &
#995000000
0#
#1000000000
b01100101 !
1#
b000 $
b01100101 %
b000 &
#1005000000
0#
#1010000000
b01100110 !
1#
b001 $
b01100110 %
b001 &
#1015000000
0#
#1020000000
b01100111 !
1#
b000 $
b01100111 %
b000 &
#1025000000
0#
#1030000000
b01101000 !
1#
b011 $
b01101000 %
b011 &
#1035000000
0#
#1040000000
b01101001 !
1#
b000 $
b01101001 %
b000 &
#1045000000
0#
#1050000000
b01101010 !
1#
b001 $
b01101010 %
b001 &
#1055000000
0#
#1060000000
b01101011 !
1#
b000 $
b01101011 %
b000 &
#1065000000
0#
#1070000000
b01101100 !
1#
b010 $
b01101100 %
b010 &
#1075000000
0#
#1080000000
b01101101 !
1#
b000 $
b01101101 %
b000 &
#1085000000
0#
#1090000000
b01101110 !
1#
b001 $
b01101110 %
b001 &
#1095000000
0#
#1100000000
b01101111 !
1#
b000 $
b01101111 %
b000 &
#1105000000
0#
#1110000000
b01110000 !
1#
b100 $
b01110000 %
b100 &
#1115000000
0#
#1120000000
b01110001 !
1#
b000 $
b01110001 %
b000 &
#1125000000
0#
#1130000000
b01110010 !
1#
b001 $
b01110010 %
b001 &
#1135000000
0#
#1140000000
b01110011 !
1#
b000 $
b01110011 %
b000 &
#1145000000
0#
#1150000000
b01110100 !
1#
b010 $
b01110100 %
b010 &
#1155000000
0#
#1160000000
b01110101 !
1#
b000 $
b01110101 %
b000 &
#1165000000
0#
#1170000000
b01110110 !
1#
b001 $
b01110110 %
b001 &
#1175000000
0#
#1180000000
b01110111 !
1#
b000 $
b01110111 %
b000 &
#1185000000
0#
#1190000000
b01111000 !
1#
b011 $
b01111000 %
b011 &
#1195000000
0#
#1200000000
b01111001 !
1#
b000 $
b01111001 %
b000 &
#1205000000
0#
#1210000000
b01111010 !
1#
b001 $
b01111010 %
b001 &
#1215000000
0#
#1220000000
b01111011 !
1#
b000 $
b01111011 %
b000 &
#1225000000
0#
#1230000000
b01111100 !
1#
b010 $
b01111100 %
b010 &
#1235000000
0#
#1240000000
b01111101 !
1#
b000 $
b01111101 %
b000 &
#1245000000
0#
#1250000000
b01111110 !
1#
b001 $
b01111110 %
b001 &
#1255000000
0#
#1260000000
b01111111 !
1#
b000 $
b01111111 %
b000 &
#1265000000
0#
#1270000000
b10000000 !
0"
1#
b110 $
b10000000 %
b110 &
0'
#1275000000
0#
#1280000000
b10000001 !
1#
b000 $
b10000001 %
b000 &
#1285000000
0#
#1290000000
b10000010 !
1#
b001 $
b10000010 %
b001 &
#1295000000
0#
#1300000000
b10000011 !
1#
b000 $
b10000011 %
b000 &
#1305000000
0#
#1310000000
b10000100 !
1#
b010 $
b10000100 %
b010 &
#1315000000
0#
#1320000000
b10000101 !
1#
b000 $
b10000101 %
b000 &
#1325000000
0#
#1330000000
b10000110 !
1#
b001 $
b10000110 %
b001 &
#1335000000
0#
#1340000000
b10000111 !
1#
b000 $
b10000111 %
b000 &
#1345000000
0#
#1350000000
b10001000 !
1#
b011 $
b10001000 %
b011 &
#1355000000
0#
#1360000000
b10001001 !
1#
b000 $
b10001001 %
b000 &
#1365000000
0#
#1370000000
b10001010 !
1#
b001 $
b10001010 %
b001 &
#1375000000
0#
#1380000000
b10001011 !
1#
b000 $
b10001011 %
b000 &
#1385000000
0#
#1390000000
b10001100 !
1#
b010 $
b10001100 %
b010 &
#1395000000
0#
#1400000000
b10001101 !
1#
b000 $
b10001101 %
b000 &
#1405000000
0#
#1410000000
b10001110 !
1#
b001 $
b10001110 %
b001 &
#1415000000
0#
#1420000000
b10001111 !
1#
b000 $
b10001111 %
b000 &
#1425000000
0#
#1430000000
b10010000 !
1#
b100 $
b10010000 %
b100 &
#1435000000
0#
#1440000000
b10010001 !
1#
b000 $
b10010001 %
b000 &
#1445000000
0#
#1450000000
b10010010 !
1#
b001 $
b10010010 %
b001 &
#1455000000
0#
#1460000000
b10010011 !
1#
b000 $
b10010011 %
b000 &
#1465000000
0#
#1470000000
b10010100 !
1#
b010 $
b10010100 %
b010 &
#1475000000
0#
#1480000000
b10010101 !
1#
b000 $
b10010101 %
b000 &
#1485000000
0#
#1490000000
b10010110 !
1#
b001 $
b10010110 %
b001 &
#1495000000
0#
#1500000000
b10010111 !
1#
b000 $
b10010111 %
b000 &
#1505000000
0#
#1510000000
b10011000 !
1#
b011 $
b10011000 %
b011 &
#1515000000
0#
#1520000000
b10011001 !
1#
b000 $
b10011001 %
b000 &
#1525000000
0#
#1530000000
b10011010 !
1#
b001 $
b10011010 %
b001 &
#1535000000
0#
#1540000000
b10011011 !
1#
b000 $
b10011011 %
b000 &
#1545000000
0#
#1550000000
b10011100 !
1#
b010 $
b10011100 %
b010 &
#1555000000
0#
#1560000000
b10011101 !
1#
b000 $
b10011101 %
b000 &
#1565000000
0#
#1570000000
b10011110 !
1#
b001 $
b10011110 %
b001 &
#1575000000
0#
#1580000000
b10011111 !
1#
b000 $
b10011111 %
b000 &
#1585000000
0#
#1590000000
b10100000 !
1#
b101 $
b10100000 %
b101 &
#1595000000
0#
#1600000000
b10100001 !
1#
b000 $
b10100001 %
b000 &
#1605000000
0#
#1610000000
b10100010 !
1#
b001 $
b10100010 %
b001 &
#1615000000
0#
#1620000000
b10100011 !
1#
b000 $
b10100011 %
b000 &
#1625000000
0#
#1630000000
b10100100 !
1#
b010 $
b10100100 %
b010 &
#1635000000
0#
#1640000000
b10100101 !
1#
b000 $
b10100101 %
b000 &
#1645000000
0#
#1650000000
b10100110 !
1#
b001 $
b10100110 %
b001 &
#1655000000
0#
#1660000000
b10100111 !
1#
b000 $
b10100111 %
b000 &
#1665000000
0#
#1670000000
b10101000 !
1#
b011 $
b10101000 %
b011 &
#1675000000
0#
#1680000000
b10101001 !
1#
b000 $
b10101001 %
b000 &
#1685000000
0#
#1690000000
b10101010 !
1#
b001 $
b10101010 %
b001 &
#1695000000
0#
#1700000000
b10101011 !
1#
b000 $
b10101011 %
b000 &
#1705000000
0#
#1710000000
b10101100 !
1#
b010 $
b10101100 %
b010 &
#1715000000
0#
#1720000000
b10101101 !
1#
b000 $
b10101101 %
b000 &
#1725000000
0#
#1730000000
b10101110 !
1#
b001 $
b10101110 %
b001 &
#1735000000
0#
#1740000000
b10101111 !
1#
b000 $
b10101111 %
b000 &
#1745000000
0#
#1750000000
b10110000 !
1#
b100 $
b10110000 %
b100 &
#1755000000
0#
#1760000000
b10110001 !
1#
b000 $
b10110001 %
b000 &
#1765000000
0#
#1770000000
b10110010 !
1#
b001 $
b10110010 %
b001 &
#1775000000
0#
#1780000000
b10110011 !
1#
b000 $
b10110011 %
b000 &
#1785000000
0#
#1790000000
b10110100 !
1#
b010 $
b10110100 %
b010 &
#1795000000
0#
#1800000000
b10110101 !
1#
b000 $
b10110101 %
b000 &
#1805000000
0#
#1810000000
b10110110 !
1#
b001 $
b10110110 %
b001 &
#1815000000
0#
#1820000000
b10110111 !
1#
b000 $
b10110111 %
b000 &
#1825000000
0#
#1830000000
b10111000 !
1#
b011 $
b10111000 %
b011 &
#1835000000
0#
#1840000000
b10111001 !
1#
b000 $
b10111001 %
b000 &
#1845000000
0#
#1850000000
b10111010 !
1#
b001 $
b10111010 %
b001 &
#1855000000
0#
#1860000000
b10111011 !
1#
b000 $
b10111011 %
b000 &
#1865000000
0#
#1870000000
b10111100 !
1#
b010 $
b10111100 %
b010 &
#1875000000
0#
#1880000000
b10111101 !
1#
b000 $
b10111101 %
b000 &
#1885000000
0#
#1890000000
b10111110 !
1#
b001 $
b10111110 %
b001 &
#1895000000
0#
#1900000000
b10111111 !
1#
b000 $
b10111111 %
b000 &
#1905000000
0#
#1910000000
b11000000 !
1#
b110 $
b11000000 %
b110 &
#1915000000
0#
#1920000000
b11000001 !
1#
b000 $
b11000001 %
b000 &
#1925000000
0#
#1930000000
b11000010 !
1#
b001 $
b11000010 %
b001 &
#1935000000
0#
#1940000000
b11000011 !
1#
b000 $
b11000011 %
b000 &
#1945000000
0#
#1950000000
b11000100 !
1#
b010 $
b11000100 %
b010 &
#1955000000
0#
#1960000000
b11000101 !
1#
b000 $
b11000101 %
b000 &
#1965000000
0#
#1970000000
b11000110 !
1#
b001 $
b11000110 %
b001 &
#1975000000
0#
#1980000000
b11000111 !
1#
b000 $
b11000111 %
b000 &
#1985000000
0#
#1990000000
b11001000 !
1#
b011 $
b11001000 %
b011 &
#1995000000
0#
#2000000000
b11001001 !
1#
b000 $
b11001001 %
b000 &
#2005000000
0#
#2010000000
b11001010 !
1#
b001 $
b11001010 %
b001 &
#2015000000
0#
#2020000000
b11001011 !
1#
b000 $
b11001011 %
b000 &
#2025000000
0#
#2030000000
b11001100 !
1#
b010 $
b11001100 %
b010 &
#2035000000
0#
#2040000000
b11001101 !
1#
b000 $
b11001101 %
b000 &
#2045000000
0#
#2050000000
b11001110 !
1#
b001 $
b11001110 %
b001 &
#2055000000
0#
#2060000000
b11001111 !
1#
b000 $
b11001111 %
b000 &
#2065000000
0#
#2070000000
b11010000 !
1#
b100 $
b11010000 %
b100 &
#2075000000
0#
#2080000000
b11010001 !
1#
b000 $
b11010001 %
b000 &
#2085000000
0#
#2090000000
b11010010 !
1#
b001 $
b11010010 %
b001 &
#2095000000
0#
#2100000000
b11010011 !
1#
b000 $
b11010011 %
b000 &
#2105000000
0#
#2110000000
b11010100 !
1#
b010 $
b11010100 %
b010 &
#2115000000
0#
#2120000000
b11010101 !
1#
b000 $
b11010101 %
b000 &
#2125000000
0#
#2130000000
b11010110 !
1#
b001 $
b11010110 %
b001 &
#2135000000
0#
#2140000000
b11010111 !
1#
b000 $
b11010111 %
b000 &
#2145000000
0#
#2150000000
b11011000 !
1#
b011 $
b11011000 %
b011 &
#2155000000
0#
#2160000000
b11011001 !
1#
b000 $
b11011001 %
b000 &
#2165000000
0#
#2170000000
b11011010 !
1#
b001 $
b11011010 %
b001 &
#2175000000
0#
#2180000000
b11011011 !
1#
b000 $
b11011011 %
b000 &
#2185000000
0#
#2190000000
b11011100 !
1#
b010 $
b11011100 %
b010 &
#2195000000
0#
#2200000000
b11011101 !
1#
b000 $
b11011101 %
b000 &
#2205000000
0#
#2210000000
b11011110 !
1#
b001 $
b11011110 %
b001 &
#2215000000
0#
#2220000000
b11011111 !
1#
b000 $
b11011111 %
b000 &
#2225000000
0#
#2230000000
b11100000 !
1#
b101 $
b11100000 %
b101 &
#2235000000
0#
#2240000000
b11100001 !
1#
b000 $
b11100001 %
b000 &
#2245000000
0#
#2250000000
b11100010 !
1#
b001 $
b11100010 %
b001 &
#2255000000
0#
#2260000000
b11100011 !
1#
b000 $
b11100011 %
b000 &
#2265000000
0#
#2270000000
b11100100 !
1#
b010 $
b11100100 %
b010 &
#2275000000
0#
#2280000000
b11100101 !
1#
b000 $
b11100101 %
b000 &
#2285000000
0#
#2290000000
b11100110 !
1#
b001 $
b11100110 %
b001 &
#2295000000
0#
#2300000000
b11100111 !
1#
b000 $
b11100111 %
b000 &
#2305000000
0#
#2310000000
b11101000 !
1#
b011 $
b11101000 %
b011 &
#2315000000
0#
#2320000000
b11101001 !
1#
b000 $
b11101001 %
b000 &
#2325000000
0#
#2330000000
b11101010 !
1#
b001 $
b11101010 %
b001 &
#2335000000
0#
#2340000000
b11101011 !
1#
b000 $
b11101011 %
b000 &
#2345000000
0#
#2350000000
b11101100 !
1#
b010 $
b11101100 %
b010 &
#2355000000
0#
#2360000000
b11101101 !
1#
b000 $
b11101101 %
b000 &
#2365000000
0#
#2370000000
b11101110 !
1#
b001 $
b11101110 %
b001 &
#2375000000
0#
#2380000000
b11101111 !
1#
b000 $
b11101111 %
b000 &
#2385000000
0#
#2390000000
b11110000 !
1#
b100 $
b11110000 %
b100 &
#2395000000
0#
#2400000000
b11110001 !
1#
b000 $
b11110001 %
b000 &
#2405000000
0#
#2410000000
b11110010 !
1#
b001 $
b11110010 %
b001 &
#2415000000
0#
#2420000000
b11110011 !
1#
b000 $
b11110011 %
b000 &
#2425000000
0#
#2430000000
b11110100 !
1#
b010 $
b11110100 %
b010 &
#2435000000
0#
#2440000000
b11110101 !
1#
b000 $
b11110101 %
b000 &
#2445000000
0#
#2450000000
b11110110 !
1#
b001 $
b11110110 %
b001 &
#2455000000
0#
#2460000000
b11110111 !
1#
b000 $
b11110111 %
b000 &
#2465000000
0#
#2470000000
b11111000 !
1#
b011 $
b11111000 %
b011 &
#2475000000
0#
#2480000000
b11111001 !
1#
b000 $
b11111001 %
b000 &
#2485000000
0#
#2490000000
b11111010 !
1#
b001 $
b11111010 %
b001 &
#2495000000
0#
#2500000000
b11111011 !
1#
b000 $
b11111011 %
b000 &
#2505000000
0#
#2510000000
b11111100 !
1#
b010 $
b11111100 %
b010 &
#2515000000
0#
#2520000000
b11111101 !
1#
b000 $
b11111101 %
b000 &
#2525000000
0#
#2530000000
b11111110 !
1#
b001 $
b11111110 %
b001 &
#2535000000
0#
#2540000000
b11111111 !
1#
b000 $
b11111111 %
b000 &
#2545000000
0#
#2550000000
b00000000 !
1"
1#
b000 $
b00000000 %
b000 &
1'
#2555000000
0#
#2560000000
b00000001 !
0"
1#
b00000001 %
0'
#2565000000
0#
#2570000000
b00000010 !
0"
1#
b001 $
b00000010 %
b001 &
0'
#2575000000
0#
#2580000000
b00000011 !
1#
b000 $
b00000011 %
b000 &
#2585000000
0#
#2590000000
b00000100 !
0"
1#
b010 $
b00000100 %
b010 &
0'
#2595000000
0#
#2600000000
b00000101 !
1#
b000 $
b00000101 %
b000 &
#2605000000
0#
#2610000000
b00000110 !
1#
b001 $
b00000110 %
b001 &
#2615000000
0#
#2620000000
b00000111 !
1#
b000 $
b00000111 %
b000 &
#2625000000
0#
#2630000000
b00001000 !
0"
1#
b011 $
b00001000 %
b011 &
0'
#2635000000
0#
#2640000000
b00001001 !
1#
b000 $
b00001001 %
b000 &
#2645000000
0#
#2650000000
b00001010 !
1#
b001 $
b00001010 %
b001 &
#2655000000
0#
#2660000000
b00001011 !
1#
b000 $
b00001011 %
b000 &
#2665000000
0#
#2670000000
b00001100 !
1#
b010 $
b00001100 %
b010 &
#2675000000
0#
#2680000000
b00001101 !
1#
b000 $
b00001101 %
b000 &
#2685000000
0#
#2690000000
b00001110 !
1#
b001 $
b00001110 %
b001 &
#2695000000
0#
#2700000000
b00001111 !
1#
b000 $
b00001111 %
b000 &
#2705000000
0#
#2710000000
b00010000 !
0"
1#
b100 $
b00010000 %
b100 &
0'
#2715000000
0#
#2720000000
b00010001 !
1#
b000 $
b00010001 %
b000 &
#2725000000
0#
#2730000000
b00010010 !
1#
b001 $
b00010010 %
b001 &
#2735000000
0#
#2740000000
b00010011 !
1#
b000 $
b00010011 %
b000 &
#2745000000
0#
#2750000000
b00010100 !
1#
b010 $
b00010100 %
b010 &
#2755000000
0#
#2760000000
b00010101 !
1#
b000 $
b00010101 %
b000 &
#2765000000
0#
#2770000000
b00010110 !
1#
b001 $
b00010110 %
b001 &
#2775000000
0#
#2780000000
b00010111 !
1#
b000 $
b00010111 %
b000 &
#2785000000
0#
#2790000000
b00011000 !
1#
b011 $
b00011000 %
b011 &
#2795000000
0#
#2800000000
b00011001 !
1#
b000 $
b00011001 %
b000 &
#2805000000
0#
#2810000000
b00011010 !
1#
b001 $
b00011010 %
b001 &
#2815000000
0#
#2820000000
b00011011 !
1#
b000 $
b00011011 %
b000 &
#2825000000
0#
#2830000000
b00011100 !
1#
b010 $
b00011100 %
b010 &
#2835000000
0#
#2840000000
b00011101 !
1#
b000 $
b00011101 %
b000 &
#2845000000
0#
#2850000000
b00011110 !
1#
b001 $
b00011110 %
b001 &
#2855000000
0#
#2860000000
b00011111 !
1#
b000 $
b00011111 %
b000 &
#2865000000
0#
#2870000000
b00100000 !
0"
1#
b101 $
b00100000 %
b101 &
0'
#2875000000
0#
#2880000000
b00100001 !
1#
b000 $
b00100001 %
b000 &
#2885000000
0#
#2890000000
b00100010 !
1#
b001 $
b00100010 %
b001 &
#2895000000
0#
#2900000000
b00100011 !
1#
b000 $
b00100011 %
b000 &
#2905000000
0#
#2910000000
b00100100 !
1#
b010 $
b00100100 %
b010 &
#2915000000
0#
#2920000000
b00100101 !
1#
b000 $
b00100101 %
b000 &
#2925000000
0#
#2930000000
b00100110 !
1#
b001 $
b00100110 %
b001 &
#2935000000
0#
#2940000000
b00100111 !
1#
b000 $
b00100111 %
b000 &
#2945000000
0#
#2950000000
b00101000 !
1#
b011 $
b00101000 %
b011 &
#2955000000
0#
#2960000000
b00101001 !
1#
b000 $
b00101001 %
b000 &
#2965000000
0#
#2970000000
b00101010 !
1#
b001 $
b00101010 %
b001 &
#2975000000
0#
#2980000000
b00101011 !
1#
b000 $
b00101011 %
b000 &
#2985000000
0#
#2990000000
b00101100 !
1#
b010 $
b00101100 %
b010 &
#2995000000
0#
#3000000000
b00101101 !
1#
b000 $
b00101101 %
b000 &
#3005000000
0#
#3010000000
b00101110 !
1#
b001 $
b00101110 %
b001 &
#3015000000
0#
#3020000000
b00101111 !
1#
b000 $
b00101111 %
b000 &
#3025000000
0#
#3030000000
b00110000 !
1#
b100 $
b00110000 %
b100 &
#3035000000
0#
#3040000000
b00110001 !
1#
b000 $
b00110001 %
b000 &
#3045000000
0#
#3050000000
b00110010 !
1#
b001 $
b00110010 %
b001 &
#3055000000
0#
#3060000000
b00110011 !
1#
b000 $
b00110011 %
b000 &
#3065000000
0#
#3070000000
b00110100 !
1#
b010 $
b00110100 %
b010 &
#3075000000
0#
#3080000000
b00110101 !
1#
b000 $
b00110101 %
b000 &
#3085000000
0#
#3090000000
b00110110 !
1#
b001 $
b00110110 %
b001 &
#3095000000
0#
#3100000000
b00110111 !
1#
b000 $
b00110111 %
b000 &
#3105000000
0#
#3110000000
b00111000 !
1#
b011 $
b00111000 %
b011 &
#3115000000
0#
#3120000000
b00111001 !
1#
b000 $
b00111001 %
b000 &
#3125000000
0#
#3130000000
b00111010 !
1#
b001 $
b00111010 %
b001 &
#3135000000
0#
#3140000000
b00111011 !
1#
b000 $
b00111011 %
b000 &
#3145000000
0#
#3150000000
b00111100 !
1#
b010 $
b00111100 %
b010 &
#3155000000
0#
#3160000000
b00111101 !
1#
b000 $
b00111101 %
b000 &
#3165000000
0#
#3170000000
b00111110 !
1#
b001 $
b00111110 %
b001 &
#3175000000
0#
#3180000000
b00111111 !
1#
b000 $
b00111111 %
b000 &
#3185000000
0#
#3190000000
b01000000 !
0"
1#
b110 $
b01000000 %
b110 &
0'
#3195000000
0#
#3200000000
b01000001 !
1#
b000 $
b01000001 %
b000 &
#3205000000
0#
#3210000000
b01000010 !
1#
b001 $
b01000010 %
b001 &
#3215000000
0#
#3220000000
b01000011 !
1#
b000 $
b01000011 %
b000 &
#3225000000
0#
#3230000000
b01000100 !
1#
b010 $
b01000100 %
b010 &
#3235000000
0#
#3240000000
b01000101 !
1#
b000 $
b01000101 %
b000 &
#3245000000
0#
#3250000000
b01000110 !
1#
b001 $
b01000110 %
b001 &
#3255000000
0#
#3260000000
b01000111 !
1#
b000 $
b01000111 %
b000 &
#3265000000
0#
#3270000000
b01001000 !
1#
b011 $
b01001000 %
b011 &
#3275000000
0#
#3280000000
b01001001 !
1#
b000 $
b01001001 %
b000 &
#3285000000
0#
#3290000000
b01001010 !
1#
b001 $
b01001010 %
b001 &
#3295000000
0#
#3300000000
b01001011 !
1#
b000 $
b01001011 %
b000 &
#3305000000
0#
#3310000000
b01001100 !
1#
b010 $
b01001100 %
b010 &
#3315000000
0#
#3320000000
b01001101 !
1#
b000 $
b01001101 %
b000 &
#3325000000
0#
#3330000000
b01001110 !
1#
b001 $
b01001110 %
b001 &
#3335000000
0#
#3340000000
b01001111 !
1#
b000 $
b01001111 %
b000 &
#3345000000
0#
#3350000000
b01010000 !
1#
b100 $
b01010000 %
b100 &
#3355000000
0#
#3360000000
b01010001 !
1#
b000 $
b01010001 %
b000 &
#3365000000
0#
#3370000000
b01010010 !
1#
b001 $
b01010010 %
b001 &
#3375000000
0#
#3380000000
b01010011 !
1#
b000 $
b01010011 %
b000 &
#3385000000
0#
#3390000000
b01010100 !
1#
b010 $
b01010100 %
b010 &
#3395000000
0#
#3400000000
b01010101 !
1#
b000 $
b01010101 %
b000 &
#3405000000
0#
#3410000000
b01010110 !
1#
b001 $
b01010110 %
b001 &
#3415000000
0#
#3420000000
b01010111 !
1#
b000 $
b01010111 %
b000 &
#3425000000
0#
#3430000000
b01011000 !
1#
b011 $
b01011000 %
b011 &
#3435000000
0#
#3440000000
b01011001 !
1#
b000 $
b01011001 %
b000 &
#3445000000
0#
#3450000000
b01011010 !
1#
b001 $
b01011010 %
b001 &
#3455000000
0#
#3460000000
b01011011 !
1#
b000 $
b01011011 %
b000 &
#3465000000
0#
#3470000000
b01011100 !
1#
b010 $
b01011100 %
b010 &
#3475000000
0#
#3480000000
b01011101 !
1#
b000 $
b01011101 %
b000 &
#3485000000
0#
#3490000000
b01011110 !
1#
b001 $
b01011110 %
b001 &
#3495000000
0#
#3500000000
b01011111 !
1#
b000 $
b01011111 %
b000 &
#3505000000
0#
#3510000000
b01100000 !
1#
b101 $
b01100000 %
b101 &
#3515000000
0#
#3520000000
b01100001 !
1#
b000 $
b01100001 %
b000 &
#3525000000
0#
#3530000000
b01100010 !
1#
b001 $
b01100010 %
b001 &
